885401 862740 432
571877 603566 434
721819 395157 509
72074 705286 509
306253 973861 525
415386 842482 525
350835 891301 525
146706 112815 375
94004 88537 333
255063 897978 525
572358 515838 452
433346 155311 449
635118 217465 509
530463 923805 525
518698 65007 470
274263 469870 449
75039 916946 525
191897 413852 449
678639 824918 504
891622 160509 525
740524 798232 468
415522 677606 509
70634 326786 443
628893 416632 509
886312 905525 445
30476 81441 351
449898 924706 525
34262 716136 509
773955 383650 509
528978 298446 470
373229 230577 443
604489 766753 509
787146 303604 509
676710 157766 509
353994 770505 509
753137 813394 468
432505 370133 449
896920 690242 525
637192 539558 509
733348 692256 504
119191 175528 383
946948 712788 525
321515 874972 525
917782 379125 525
487090 970432 525
631759 768459 504
158601 95889 383
775571 499796 509
421347 461340 444
473582 780095 509
842428 647939 525
655687 340060 509
186467 718839 509
537193 905921 525
345467 23677 443
680778 212251 509
610050 345796 470
167310 663415 509
232734 960327 525
850779 690823 525
277112 74296 443
965946 765603 525
584860 80811 470
724611 681376 504
395188 24410 443
780981 662719 504
629908 300578 509
695391 705375 504
663327 301810 509
677888 961677 525
509085 84918 449
27257 110110 354
423697 424866 312
979587 804236 525
407243 845912 525
919631 791104 525
803958 488237 509
910938 929674 476
607931 814587 509
221924 233342 443
963666 339548 525
142772 185332 383
562298 370860 470
139267 829511 509
420907 767007 509
393495 67604 443
41184 331449 443
357216 689694 509
905270 857141 445
381972 713893 509
63466 281417 443
592632 540295 452
812355 598741 509
869665 611163 525
755570 928714 525
464224 876284 525
650871 396655 509
410310 479606 444
51599 788973 509
196978 940609 525
99106 303423 443
135133 522996 470
698968 921042 525
221948 986901 525
895690 134288 525
228030 336399 443
794490 687208 504
833420 886136 525
407650 637298 509
501008 95630 449
463064 312117 449
955619 437702 525
725379 826345 468
910286 438865 525
849422 148549 525
830809 506643 509
462910 133202 449
939528 808060 525
766826 280059 509
833437 732252 468
682312 497555 509
406045 871619 525
410663 434574 418
427961 217209 449
867095 86452 525
784073 413716 509
601242 376662 470
914403 504230 525
299683 978343 525
318490 510480 449
383688 260472 441
432575 986173 525
354248 750201 509
421567 549920 470
248821 658813 509
61256 709963 509
552776 652718 509
496054 561248 470
40724 611313 470
957292 124907 525
547001 711687 509
664317 12172 509
880328 193089 525
898252 61661 525
89727 394109 443
957605 492910 525
849865 996806 507
861086 220143 525
628984 44651 509
277915 339197 389
654631 955187 525
183043 684096 509
913992 835668 525
313252 521731 470
607913 349206 470
644439 2289 509
946292 62908 525
911607 795407 525
535692 28134 470
532840 265122 470
830992 901116 525
929073 5264 525
605757 413073 470
178696 439797 449
821789 9719 509
724963 319443 509
194004 920331 525
788467 789315 406
815458 835334 450
627959 606319 509
371083 127490 443
735734 809644 468
570004 271169 470
153149 509750 449
186478 577706 470
694856 199006 509
667835 95835 509
741547 421965 509
125680 74688 354
524047 610351 452
75995 848247 525
709289 389895 509
278810 25179 443
25780 380283 443
978850 542107 525
415697 142126 449
505075 30020 449
373472 858265 525
998852 378917 525
41584 124439 354
803854 670313 504
430459 291226 449
451655 508992 444
137319 110461 349
548771 130732 470
231680 535719 470
162637 173054 352
436086 577371 470
18099 543601 470
545345 26837 470
981974 765256 525
697896 500347 509
430976 922344 525
28310 152680 375
351597 67928 443
602855 728815 509
842845 274595 525
544605 744070 509
163029 279631 443
889474 733690 525
721351 479989 509
992324 420853 525
125932 630301 509
686474 887998 525
943911 429940 525
192773 642031 509
602541 428582 470
251693 81315 443
223636 977328 525
526944 567504 452
925403 333239 525
232535 503845 449
855855 401309 525
544561 322293 470
391353 410529 449
590785 710589 509
455276 481202 444
34874 262679 443
839430 58020 525
594804 42647 470
921753 454854 525
756460 399482 509
553004 39813 470
433256 754590 509
595801 398832 470
838548 636700 525
166594 411545 449
113954 990322 525
90161 868773 525
762823 448693 509
98612 477983 449
851136 220115 525
401737 85308 443
30951 540407 470
359600 854324 525
793295 782242 437
320141 276020 389
383726 882945 525
374685 241219 441
40682 63443 340
677520 937048 525
774622 217406 509
163728 640613 509
31609 742162 509
352273 4543 443
916853 859334 476
205610 725650 509
163751 145430 383
528045 82559 470
663137 293530 509
123767 34492 354
377095 470734 449
680510 235657 509
359532 339920 441
731246 664663 504
981688 188268 525
53290 575146 470
783550 384123 509
731143 553354 509
257239 533233 470
840444 598059 525
631481 678821 442
301636 50149 443
315619 820493 509
631018 482947 509
298248 316610 384
634623 725411 504
961395 609387 525
683679 233433 509
146766 211976 383
812904 363751 509
174673 937011 525
153629 824559 509
292830 653243 509
141581 471346 449
700133 595236 509
298925 387015 441
102607 429834 449
557303 177783 470
138713 470495 449
676483 837157 504
34832 532346 470
72640 806951 509
551647 513865 452
333485 771111 509
99608 553537 470
35740 294617 443
933527 960427 507
