1 10 20
100 200 125
201 210 89
900 1000 174
1 1 1
1 2 2
1 100 119
1 1000 179
1 10000 262
1 100000 351
1 999999 525
32 1024 179
999 1999 182
850446 872994 432
940122 968674 414
170808 316729 443
60034 590019 470
817368 886427 525
436003 654315 509
916828 988532 507
149637 814929 509
308959 767909 509
66109 642626 509
210074 321613 443
292749 956670 525
761679 985734 525
551368 806359 509
543296 660296 509
293364 963244 525
785594 801584 468
677219 759129 504
205255 278560 443
652193 670598 442
350420 750773 509
48800 678684 509
541307 932142 525
587877 777729 509
78258 852842 525
592804 942287 525
710040 852412 525
196617 655271 509
783481 787744 375
412395 505321 444
36309 526214 470
55518 635514 509
280591 457642 449
174801 403571 443
170297 351403 443
568084 872567 525
408765 463103 449
796220 864472 525
353082 754657 509
456686 800815 509
251493 954475 525
585952 832469 509
286359 450308 449
48609 339364 443
791075 821094 468
653617 717330 504
141267 798086 509
460151 784546 509
733227 950644 525
432165 825370 509
735721 845002 525
369157 887511 525
925302 978430 507
140061 679032 509
499028 614755 470
967318 999653 458
689962 908889 525
652824 875476 525
281909 670174 509
546808 773459 509
794484 965901 525
675984 797068 504
621104 864806 525
817809 980142 525
613161 942655 525
623104 821852 509
277600 585092 470
550915 563235 421
738759 920534 525
833520 925057 525
201740 268655 443
366770 644194 509
801271 895485 525
32590 684148 509
565235 988979 525
858833 978154 507
271579 275449 358
47505 125539 354
77124 512774 470
488328 567484 470
411854 778082 509
592756 689158 509
570305 757521 509
107238 800879 509
346357 878877 525
118478 368421 443
55195 140143 354
164805 808423 509
854332 892941 445
326080 596011 470
706633 966698 525
897925 921556 476
577722 857916 525
451792 980201 525
656401 790124 504
982983 994820 427
927679 963878 507
332380 862870 525
549040 590448 434
12125 753987 509
378846 440657 449
189937 384315 443
367366 399562 436
908207 974084 507
359188 920998 525
49147 386584 443
189677 558232 470
360168 832829 509
149195 564051 470
810570 845959 525
544868 582378 452
766702 806915 468
414061 611236 470
238425 664191 509
102421 861482 525
900383 990570 507
239080 785419 509
791368 921137 525
176681 475520 449
199501 742111 509
34516 51663 324
105461 138494 354
514987 828296 509
454291 781307 509
775186 917582 525
121789 591787 470
386769 400914 436
894358 982639 507
72317 435999 449
619637 625878 385
593970 617052 447
218651 590024 470
315631 743550 509
88952 152987 375
972785 973567 321
410340 922301 525
781817 833468 468
320009 684537 509
278531 336333 389
68086 255869 443
168592 986672 525
166303 930246 525
296412 813664 509
378973 657859 509
648420 698797 442
346210 768680 509
9212 797801 509
509423 863680 525
453563 647924 509
967526 972162 458
479722 485087 413
330465 719531 509
341445 730027 509
922289 998560 507
629360 650263 416
847877 875343 432
628399 764771 504
919652 973956 507
312995 444998 449
379798 587926 470
78210 133236 354
158405 677078 509
936509 981695 507
565056 993818 525
686374 758174 504
888322 897896 370
15321 908647 525
140365 672688 509
532365 614419 452
391794 753122 509
123901 174513 383
744758 939267 525
366317 412638 449
526030 541892 408
430627 764977 509
857911 953114 507
154303 999560 525
700406 853781 525
260615 805969 509
10658 446952 449
851206 957564 507
771899 797398 468
597915 981928 525
520040 907371 525
822842 997985 525
430083 955793 525
918625 932109 476
142942 433228 449
998157 998509 277
781950 897503 525
830173 940394 525
958468 982909 458
683591 795204 504
858197 867058 388
521550 713759 509
629974 975366 525
806929 950709 525
921663 973371 507
961911 991802 458
829858 873722 525
96303 382109 443
809741 972672 525
681528 713746 504
655133 680558 442
221821 969729 525
504817 826459 509
122326 515907 470
12901 272370 443
99547 740575 509
248367 454422 449
209715 819040 509
196503 429173 449
51125 438668 449
811292 869471 525
54341 101775 351
293213 764671 509
657644 755610 504
507797 740934 509
973826 999778 440
133849 178856 383
772598 782066 437
465727 525284 470
11715 962466 525
308933 872523 525
445741 569970 470
525083 868893 525
693582 783952 504
625223 910402 525
843351 911451 476
604642 717360 509
669486 903122 525
967900 988564 458
482065 695378 509
697125 937623 525
897144 905883 401
170825 358654 443
407410 437671 449
259046 688766 509
366130 779183 509
92053 246366 443
644972 764695 504
795005 809104 468
436626 920596 525
450322 591199 470
443122 453164 387
365318 958009 525
176191 935037 525
65802 833629 509
313227 430355 449
953032 966147 414
933202 956448 507
415856 544481 470
