1 10 20
100 200 125
201 210 89
900 1000 174
1 1 1
1 2 2
75756 96879 351
6898 37352 324
81686 31919 351
79730 2561 351
94248 23860 351
94343 38066 351
23689 33225 308
87801 92880 333
47164 94834 351
84473 16519 351
7006 15912 276
33941 67267 340
9474 25605 282
76453 64550 325
25671 91426 351
49801 20527 324
24867 10502 282
98932 77939 338
90551 95901 333
83274 52667 351
49831 94241 351
65503 8394 340
61388 33251 340
54882 59326 322
19665 17366 279
86195 75963 351
82769 51872 351
40150 68219 340
3348 44305 324
96875 18800 351
49711 38085 314
68413 81013 351
38152 31325 324
65213 14849 340
81250 67665 351
72472 69763 325
96937 84933 333
89072 26236 351
82232 36909 351
45228 4372 324
11554 64496 340
9253 25184 282
84652 12277 351
46550 42515 314
29652 56848 340
34565 45171 324
40063 8868 324
75950 96500 351
84207 33797 351
10343 16060 276
72764 99577 351
39393 15098 324
1722 18158 279
47068 62417 340
10698 94956 351
74529 24939 340
15246 75375 340
99285 58695 351
45590 34920 324
46925 34335 324
71397 28656 340
20052 10288 279
79555 90676 333
94482 81187 333
85528 15634 351
62627 34524 340
8609 20492 279
79487 71834 351
43913 15845 324
22589 47462 324
41009 77884 351
2984 33701 308
38014 1785 324
30582 76067 340
70304 72505 325
98572 96071 297
78488 10019 351
20097 48717 324
8338 93263 351
66730 31756 340
87935 23441 351
33783 79271 351
22860 83863 351
14395 10158 276
40586 47294 314
55958 10825 340
78120 50937 351
40190 23976 324
39607 3774 324
74951 43676 340
5664 37055 324
53116 97430 351
67910 20635 340
28659 28285 259
57536 53848 322
54475 2045 340
84018 17334 351
58425 31493 340
48194 83852 351
14377 6579 276
48037 70505 340
17212 89061 351
71094 44640 340
48037 19384 324
89213 80354 333
16106 7547 276
95770 77299 338
63099 6930 340
51497 34845 324
34504 79111 351
65830 82913 351
26776 92226 351
47481 87571 351
59458 58671 273
95366 21571 351
88212 41112 351
37359 76575 340
8842 24299 282
44911 75638 340
60203 87723 351
14883 19442 279
36984 81693 351
11456 84263 351
65566 69728 312
5253 3609 238
85653 16996 351
19324 49267 324
9784 70773 340
38544 30678 324
6342 59050 340
88117 72170 351
98686 16244 351
84712 72926 351
80471 54675 351
6271 48431 324
1641 13477 276
68390 23926 340
64644 51849 340
71846 27318 340
9693 82097 351
33841 92641 351
28869 75228 340
374 78243 351
71549 49749 340
49286 79141 351
87020 21601 351
53984 41273 340
11224 69610 340
19987 35391 311
70497 60726 335
5230 46374 324
40335 48420 314
38358 55967 340
22711 90472 351
94984 42525 351
14138 74183 340
30606 44720 324
89260 30286 351
12775 60163 340
55509 96827 351
2575 96553 351
38380 3040 324
69190 20724 340
97311 19063 351
60498 88829 351
95107 21091 351
43599 86223 351
38556 52740 340
70145 38571 340
20256 2899 279
10852 50404 324
30420 20436 308
8499 97466 351
41789 35650 324
17569 56466 340
87456 6677 351
82098 92023 333
90823 53629 351
83911 77767 338
24491 23989 251
54565 62104 335
49410 23650 324
76495 62829 330
44446 33462 324
80806 88573 333
91929 87319 333
60646 31951 340
61600 27508 340
90185 52992 351
6718 98755 351
82677 15554 351
19016 39936 324
1427 27583 308
9050 59767 340
44899 30357 324
74535 16505 340
1458 29907 308
91337 59605 351
97826 32073 351
24955 80356 351
5084 70256 340
22613 45967 324
42258 23824 324
14692 31430 308
74694 49072 340
27661 96447 351
70389 52190 340
75103 80719 351
77397 96171 338
73866 67991 325
94268 75790 351
98813 94832 328
26510 58489 340
51189 52851 340
67236 54576 335
92420 16312 351
30050 29530 272
12510 4137 268
61783 43136 340
51789 53330 340
38383 47553 314
28998 36205 324
33050 28289 285
93244 53710 351
94711 92771 315
55334 70329 335
15996 3884 276
44291 82550 351
53072 32389 340
23385 27818 308
