259566 631701 509
631112 27248 509
836747 796043 468
833566 355891 509
184258 76383 383
886203 763081 525
778349 187113 509
482648 396415 449
543209 8950 470
974422 238096 525
16583 843184 525
200151 597435 470
380871 441267 449
657294 528433 509
532880 925828 525
665486 558517 509
21928 213323 383
865611 221918 525
780557 644863 504
890251 49172 525
894265 136794 525
264179 754602 509
918442 992642 507
843652 462596 525
738005 698073 504
756267 607872 509
112825 251771 443
686271 537682 509
534926 436850 470
334962 540628 470
231599 289006 407
200270 913567 525
304430 408192 441
485333 505041 426
926572 660271 525
504615 285823 449
667938 927914 525
630838 81551 509
324370 212648 443
499217 778633 509
486669 243807 449
803435 32739 509
816129 531594 509
57621 403481 443
300482 964658 525
131249 31812 354
667959 862758 525
602231 163171 470
279765 152503 443
848369 550711 525
159887 36806 383
238693 326861 407
707393 53026 509
937398 807469 525
442768 876873 525
799024 601070 509
117665 619403 470
663386 483948 509
269248 653907 509
192785 911680 525
383434 185680 443
669290 594495 509
930343 942702 507
2470 394093 443
103164 517561 470
716460 577085 509
497125 383677 449
340397 38312 443
729755 358010 509
855732 224688 525
864605 629138 525
474263 872000 525
179153 28618 383
329185 519599 470
647226 163137 509
297024 109241 443
171810 2936 383
95999 103935 341
266718 473336 449
749846 748082 393
419361 563087 470
577067 936919 525
223158 92517 386
447156 212342 449
469107 799184 509
486910 987320 525
940150 700558 525
167781 397210 443
988051 552290 525
163233 206991 373
959313 906763 507
103647 50267 351
30352 160893 383
727610 804883 468
598801 369155 470
103523 788013 509
160975 201369 365
710514 31712 509
382334 715866 509
342825 131663 443
630038 653445 416
651993 630209 416
242329 63571 443
507540 404902 449
270576 38684 443
907995 144205 525
795478 873665 525
238502 432535 449
542126 142358 470
431002 563044 470
600009 316157 470
446619 199095 449
996067 770488 525
509406 906319 525
323781 755859 509
419619 168866 449
245271 714780 509
867307 185606 525
689337 374220 509
804794 737707 468
602936 984208 525
935565 969026 507
534957 512264 439
712506 83627 509
724998 865607 525
904451 938213 476
215349 878110 525
749625 862412 525
749001 288441 509
212436 679263 509
355050 974338 525
377560 173163 443
247179 635572 509
525818 712983 509
925223 788333 525
462852 390 449
229216 824966 509
824250 206015 509
243557 662975 509
794722 799201 468
405998 866608 525
199219 745669 509
81648 557195 470
740171 918864 525
822508 765642 468
628073 841536 525
179111 436425 449
860564 815313 525
370848 218543 443
551747 804683 509
123 966642 525
869346 172932 525
85256 201578 383
946204 199331 525
350295 793270 509
566715 685139 509
286506 751489 509
133273 394107 443
153728 549858 470
291518 762181 509
283533 790297 509
239395 772293 509
921838 467352 525
401413 744013 509
919038 745802 525
351883 811695 509
426274 604968 470
270437 655907 509
58871 273090 443
944060 628761 525
373911 75234 443
491710 588721 470
591368 835335 509
101734 719863 509
422487 384075 449
778267 579183 509
280394 478115 449
341236 563399 470
323448 232097 407
583052 365741 470
56158 428194 449
173094 805985 509
632271 908512 525
357582 664525 509
583366 142447 470
313492 288400 389
954623 376986 525
293635 944089 525
214987 734961 509
354161 367209 410
470905 285377 449
88342 841608 525
203728 714047 509
356395 416142 449
35960 936635 525
251005 896932 525
432522 378599 449
142536 569764 470
301641 806751 509
562374 435361 470
