202488 450981 449
972567 707831 525
945488 801799 525
987602 48595 525
701661 770775 504
573809 819546 509
930151 102462 525
903285 824120 525
371135 475092 449
570507 130071 470
299119 35145 443
254376 927719 525
118180 268755 443
930879 341076 525
591841 83302 470
925832 124842 525
281924 504268 449
296339 620862 470
471298 588617 470
744753 382900 509
18147 376931 443
184683 832161 509
214089 625913 470
690527 251270 509
36425 598857 470
737344 605028 509
368853 547907 470
913672 169411 525
297732 93981 443
677628 405255 509
277190 917679 525
804560 761154 468
534556 295225 470
375531 341874 441
612758 769482 509
948503 637553 525
399105 257389 441
365802 95013 443
965112 112300 525
603585 353382 470
381111 655323 509
581218 303816 470
12853 561704 470
379323 982708 525
742372 865487 525
148792 276355 443
290624 289809 252
197445 928062 525
169879 147835 383
483662 693573 509
796571 853316 525
677082 111274 509
518086 169565 470
4824 19609 279
523366 456444 470
68152 272170 443
5819 390449 443
819729 311955 509
632510 645919 416
703124 538318 509
694841 786497 504
668888 812031 504
347645 659715 509
135122 388449 443
382035 902061 525
939577 83568 525
547997 590336 434
116915 108334 349
301019 553273 470
839096 334763 525
103504 353480 443
928276 675198 525
815011 158552 509
465333 693304 509
112508 118839 349
369385 382658 423
649566 122202 509
923528 519595 525
401732 823739 509
537272 640633 509
629043 507549 509
672579 953507 525
631099 150136 509
408272 415183 449
975279 144763 525
56083 626517 509
494761 939499 525
238374 164649 443
344275 267247 407
967902 630970 525
438084 675855 509
934066 978871 507
256796 377173 441
817411 82441 509
914747 36775 525
511756 561607 470
308930 236694 407
666903 259806 509
410619 466310 444
773530 691331 504
485930 330571 449
620372 117038 470
995066 861153 507
563659 269703 470
883662 29325 525
874789 123426 525
798853 912500 525
30922 621477 470
11579 487248 449
715883 415062 509
40299 140636 354
451313 983064 525
897723 959423 507
216244 132731 383
379133 654721 509
173422 620529 470
455294 472426 444
920009 390748 525
212985 996397 525
613327 722973 509
424028 476648 444
880842 982538 507
498365 771880 509
914079 57631 525
726261 677412 504
787441 867060 525
617660 505991 470
288400 531479 470
508729 537764 470
685133 827014 504
820044 501071 509
29971 742813 509
85130 412098 449
216714 711523 509
102664 647122 509
112698 131706 349
419278 688030 509
804200 764020 468
847754 8331 525
482100 325745 449
897075 316125 525
287537 689538 509
454944 455534 263
259856 392516 441
214844 497716 449
598132 514253 452
438913 663498 509
250446 898054 525
278056 200559 443
405604 740638 509
347174 411197 449
29156 28832 228
955990 784776 525
796451 574578 509
966146 8091 525
240070 827250 509
550717 660799 509
371610 718620 509
549702 369605 470
157145 967705 525
731439 655242 504
649876 915069 525
346628 730539 509
567236 4893 470
217608 930001 525
800876 580119 509
573636 454262 470
429806 370559 449
864053 812849 525
505313 669908 509
176662 56967 383
83022 464321 449
646236 111825 509
37112 626283 470
956079 173983 525
581520 393791 470
53900 988061 525
617655 917999 525
542142 346269 470
67918 884646 525
751959 83206 509
415840 673159 509
297391 983461 525
575713 627611 509
682677 994862 525
442522 473272 444
87516 294811 443
28603 240997 443
742050 819993 468
202850 717073 509
198875 745077 509
485261 293488 449
947851 248856 525
496741 573826 470
626970 946782 525
203384 920871 525
822782 569690 509
213904 487094 449
129466 40047 354
911438 266110 525
107585 644855 509
953274 625695 525
16313 919030 525
858497 999642 507
595995 305618 470
411988 434571 418
207656 893903 525
12908 288850 443
552876 976377 525
686379 232052 509
85096 65415 351
571564 431495 470
894987 474669 525
445706 171295 449
207799 728693 509
997909 5736 525
869348 819125 525
506908 510663 382
346176 659146 509
432740 390890 449
582292 682125 509
747275 786047 468
79387 164359 383
926515 236351 525
216782 957988 525
823621 910362 525
308725 717651 509
50454 209931 383
633097 549391 509
805046 169574 509
215557 121643 383
42201 82363 351
395936 616338 470
953396 60315 525
31069 706163 509
473513 291340 449
601756 431959 470
268464 806476 509
466829 463348 369
965575 196522 525
220841 643201 509
537355 755103 509
255468 642625 509
517095 939951 525
547988 995308 525
246408 521889 470
612019 118557 470
820052 13098 509
771139 661326 504
863527 239026 525
